2016/06/01 * guld pre-founding contributions
    mnquintana:Assets                              100 GULD
    mnquintana:Income:guld                        -100 GULD
    guld:Liabilities                         -100 GULD
    guld:Equity:mnquintana                          100 GULD
